<?xml version="1.0" standalone="no"?>
<!DOCTYPE svg PUBLIC "-//W3C//DTD SVG 1.1//EN" 
  "http://www.w3.org/Graphics/SVG/1.1/DTD/svg11.dtd">
<svg width="100px" height="100px" version="1.1"
     xmlns="http://www.w3.org/2000/svg" xmlns:xlink= "http://www.w3.org/1999/xlink">
	
   <circle cx="48" cy="44" r="42" stroke="grey" stroke-width="3" fill="white" />
   <text id="texto" x="43" y="49" font-family="Verdana" font-size="20" fill="black">P</text>
</svg>
