<?xml version="1.0" standalone="no"?>
<!DOCTYPE svg PUBLIC "-//W3C//DTD SVG 1.1//EN" 
  "http://www.w3.org/Graphics/SVG/1.1/DTD/svg11.dtd">
<svg width="90px" height="90px" version="1.1"
     xmlns="http://www.w3.org/2000/svg" xmlns:xlink= "http://www.w3.org/1999/xlink">
 	<rect id="rect" x= "4"  y="4" width="84" height="84" style="fill:white ;stroke-width:1;stroke: grey" />
 	<line id="linea" x1="94" y1="-2.07" x2="-2.5" y2="96.06" style="stroke:black;stroke-width:5" />
</svg>
