<?xml version="1.0" encoding="UTF-8"?>
<svg width="90" height="90" xmlns="http://www.w3.org/2000/svg">
 <g>
  <g id="svg_5">
   <rect transform="rotate(135.84, 45.6369, 44.7601)" stroke="grey" fill="white" height="60.856633" width="60.856633" y="14.331735" x="15.208609" id="rect"/>
   <g transform="rotate(135.184, 19.75, 43.75)" opacity="0.5" id="XMLID_1_">
    <g id="svg_1">
     <rect id="svg_2" height="23.499999" width="25.500001" fill="#ff0000" y="32" x="7"/>
    </g>
    <g id="svg_3">
     <rect id="svg_4" height="23.499999" width="25.500001" stroke="#808080" fill="#ff0000" y="32" x="7"/>
    </g>
  </g>
 </g>
 <line id="linea" x1="94" y1="-2.07" x2="-2.5" y2="96.06" style="stroke:black;stroke-width:5" />
   </g>

</svg>